{
  "type": "service_account",
  "project_id": "new-comrades",
  "private_key_id": "d31a3f2a86f06120c1963811ab860cab43a62d64",
  "private_key": "-----BEGIN PRIVATE KEY-----\nMIIEvgIBADANBgkqhkiG9w0BAQEFAASCBKgwggSkAgEAAoIBAQDKnOSlXYMQLu/V\nJFRfF7pjv4DB81yn0RYnA44uGcCv990Xjz6ku3kUTYTmqN5CsTULZ3TGbrDVLFFW\nIsSfT8H3ZA/TXlTXrwgjgj9DQxBly+iAvHeq+GJ6kk7QAwdpGL192BYct7e6EAzy\nFFq8mf84ieoNX8off9deGYZV6ZXr4B+OS1EwNsq5RWy7qos/3EuFvvt5crSyO98c\nRdUUoHh+svELJI2gbebRTLigOit7W5gu2xbnCP68oi9F05vehucEr8asShmngF06\nZZnRFsaG/ua4V06nVJHn6FaJmIlWsyIvlB8XARFCIXmt19OrfDba82oHtsg4iJbi\nfu1KfyK/AgMBAAECggEALFLwTiDL6EFsZCNjdb4aH3Iod8WGcovyHazQcNNfbN97\ndYj3uk/s5/0hYth0bwCXSxxh1nsmoivky0Ql4XgwRa+VKrdLNjfrPuFid5N3Rd26\nylbwku1tlcTmCuluuJYZ9irMg5HJVqHmQxsi0nmZ9MNu+WgILqXn9oT891R3YLcu\nCxUbcqTICCKfArX5ynKtbbku4s4jUe2NuMjDTrGLzP/TeMnPRs77YTo0MeEjfpgG\nbP3S6lT4i5H8EWDpgoh68kl45lGK55hz+z+Owb4b+XpdagxJ0fzjwZnhaQ9bJFpm\nChrgANnQqfH2f9tU1/hO6PcGWTKpgRoU0g1GU5IgYQKBgQD4UzJ22BSNz5rh7kLX\nb+W28R++R6kJgK9zaiRolzjAm7PPnXRWG9r93C/hehourjMZB9PFBMHYKcxz9VjH\n7QfO/rjMO/EEfrl3nTJpkEkmTD77b2hcqNSdrMRrzFd5uZI2lJ6ICRAiA9/AISfA\nHOiyhCozDA6rlKjg7QlWR5kCUQKBgQDQ4ALvKy+1A1TQPO7qiHpJpmnWyobU9RKm\nVBxQu9BqnU/LjGnPVeTY60yiFGfsF9KAmTZs5aecRR3XHAmR539RQW9uSqoE+rhe\nqh41LQ6XODnXUIuY8RzymO0LqqcITE2bTGCG73tzj0aOSbad8966ZtuC8COyptho\nus0PJggADwKBgQCi/bi52Mpk6kc21DR7Q677jPjQ5ChHXHfMwXZ0UA2oHoq/UxHx\nEweCaOvki0h0K1LOsxyEzMKPJ6BS3E8RqrrdWsPhCdcApE0H/d4A+/uHb7RHRLCz\nYP1tIOEsAEvKUctul84WbBxytyg964Uzy8XQpn8sUlWuuTy/pdXjE8uSgQKBgG8a\nePUXF61FNFv/zWXbapC6gBnMaKPmKCFpJBadkGLlgohXDAFJQw1PO9gK2qxuj33w\nAU8zaVBqQ1EkjMKbTNG/6LHV7VHwuxk/jAnlCZnOQpYRNfAIcMlqJszJ3UdArxco\nLUAZKqVxVKpi80xZZ+PmymR/r71bmkk689BW/nJpAoGBANCkptDAxSou+EARXc3E\nlUQ+CJQtfWVWsqFa34Kqts0/in2n3npX6THCP3cCiepUXLDmxCtsZx+SXNQvdrYO\nxi/UaP0YqBWkT0geFAEJz+6FTzdaNV1zwM/nF6DYmhiulWFVJceCsFbt61Fd2G9b\nlXQZHCrmRiLvHzfabqqLTyDO\n-----END PRIVATE KEY-----\n",
  "client_email": "firebase-adminsdk-8rg7r@new-comrades.iam.gserviceaccount.com",
  "client_id": "113404831251176468953",
  "auth_uri": "https://accounts.google.com/o/oauth2/auth",
  "token_uri": "https://oauth2.googleapis.com/token",
  "auth_provider_x509_cert_url": "https://www.googleapis.com/oauth2/v1/certs",
  "client_x509_cert_url": "https://www.googleapis.com/robot/v1/metadata/x509/firebase-adminsdk-8rg7r%40new-comrades.iam.gserviceaccount.com"
}
